\BOOKMARK [0][-]{chapter.1}{\376\377\000S\000y\000s\000t\000\350\000m\000e}{}% 1
\BOOKMARK [1][-]{section.2}{\376\377\000U\000n\000i\000x\000,\000\040\000L\000i\000n\000u\000x\000,\000\040\000G\000N\000U\000\040\000e\000t\000\040\000l\000e\000s\000\040\000l\000o\000g\000i\000c\000i\000e\000l\000s\000\040\000l\000i\000b\000r\000e\000s}{chapter.1}% 2
\BOOKMARK [2][-]{subsection.3}{\376\377\000U\000n\000i\000x}{section.2}% 3
\BOOKMARK [2][-]{subsection.5}{\376\377\000G\000N\000U}{section.2}% 4
\BOOKMARK [2][-]{subsection.6}{\376\377\000L\000i\000n\000u\000x}{section.2}% 5
\BOOKMARK [2][-]{subsection.7}{\376\377\000D\000i\000f\000f\000\351\000r\000e\000n\000t\000s\000\040\000t\000y\000p\000e\000s\000\040\000d\000e\000\040\000l\000o\000g\000i\000c\000i\000e\000l\000s}{section.2}% 6
\BOOKMARK [1][-]{section.8}{\376\377\000Q\000u\000'\000e\000s\000t\000-\000c\000e\000\040\000q\000u\000'\000u\000n\000\040\000s\000y\000s\000t\000\350\000m\000e\000\040\000d\000'\000e\000x\000p\000l\000o\000i\000t\000a\000t\000i\000o\000n\000?}{chapter.1}% 7
\BOOKMARK [2][-]{subsection.9}{\376\377\000S\000y\000s\000t\000\350\000m\000e\000\040\000i\000n\000f\000o\000r\000m\000a\000t\000i\000q\000u\000e}{section.8}% 8
\BOOKMARK [2][-]{subsection.14}{\376\377\000B\000u\000t\000\040\000d\000'\000u\000n\000\040\000S\000E}{section.8}% 9
\BOOKMARK [2][-]{subsection.17}{\376\377\000R\000\364\000l\000e\000s\000\040\000d\000'\000u\000n\000\040\000S\000E}{section.8}% 10
\BOOKMARK [2][-]{subsection.20}{\376\377\000M\000o\000d\000e\000s\000\040\000d\000e\000\040\000f\000o\000n\000c\000t\000i\000o\000n\000n\000e\000m\000e\000n\000t}{section.8}% 11
\BOOKMARK [2][-]{subsection.21}{\376\377\000L\000e\000s\000\040\000g\000r\000a\000n\000d\000e\000s\000\040\000l\000i\000g\000n\000e\000s\000\040\000d\000e\000\040\000l\000'\000a\000r\000c\000h\000i\000t\000e\000c\000t\000u\000r\000e}{section.8}% 12
\BOOKMARK [1][-]{section.23}{\376\377\000S\000h\000e\000l\000l}{chapter.1}% 13
\BOOKMARK [2][-]{subsection.24}{\376\377\000C\000o\000m\000m\000a\000n\000d\000e\000s}{section.23}% 14
\BOOKMARK [2][-]{subsection.25}{\376\377\000E\000r\000r\000e\000u\000r\000s\000:\000\040\000p\000r\000e\000m\000i\000e\000r\000\040\000s\000u\000r\000v\000o\000l}{section.23}% 15
\BOOKMARK [2][-]{subsection.30}{\376\377\000L\000e\000\040\000c\000l\000a\000v\000i\000e\000r\000\040\000e\000s\000t\000\040\000v\000o\000t\000r\000e\000\040\000a\000m\000i}{section.23}% 16
\BOOKMARK [2][-]{subsection.31}{\376\377\000C\000a\000r\000a\000c\000t\000\350\000r\000e\000s\000\040\000g\000\351\000n\000\351\000r\000i\000q\000u\000e\000s}{section.23}% 17
\BOOKMARK [1][-]{section.32}{\376\377\000L\000e\000\040\000s\000y\000s\000t\000\350\000m\000e\000\040\000d\000e\000\040\000f\000i\000c\000h\000i\000e\000r\000s}{chapter.1}% 18
